0.1
0.124
0.306
0.309
0.145
0.399
0.629
0.089
0.389
0.086
0.248
0.186
0.062
0.13
0.388
0.224
0.101
0.643
0.643
0.131
0.327
0.09
0.106
0.13
0.489
0.186
0.292
0.043
0.3
0.242
0.166
0.33
0.401
0.069
0.51
0.258
0.044
0.047
0.08
0.289
0.088
0.422
0.068
0.063
0.064
0.08
0.166
0.136
0.036
0.478
0.222
0.232
0.303
0.072
0.351
0.078
0.124
0.163
0.249
0.049
0.17
0.09
0.181
0.177
0.066
0.113
0.071
0.107
0.091
0.115
0.119
0.307
0.109
0.221
0.227
0.38
0.128
0.17
0.178
0.128
0.257
0.068
0.054
0.061
0.258
0.246
0.239
0.082
0.073
0.035
0.293
0.131
0.156
0.123
0.169
0.203
0.062
0.033
0.117
0.113
0.13
0.113
0.127
0.287
0.099
0.096
0.076
0.038
0.148
0.216
0.182
0.083
0.141
0.278
0.06
0.186
0.104
0.016
0.107
0.059
0.211
0.128
0.239
0.276
0.097
0.19
0.283
0.181
0.225
0.153
0.278
0.162
0.266
0.05
0.047
0.095
0.072
0.077
0.11
0.276
0.159
0.313
0.152
0.137
0.077
0.107
0.127
0.059
0.095
0.102
0.134
0.123
0.137
0.214
0.134
0.364
0.29
0.106
0.152
0.121
0.045
0.773
0.084
0.109
0.085
0.476
0.066
0.092
0.139
0.062
0.05
0.071
0.108
0.113
0.086
0.039
0.183
0.059
0.092
0.28
0.198
0.063
0.081
0.048
0.035
0.043
0.049
0.054
0.185
0.037
0.29
0.042
0.059
0.06
0.135
0.262
0.079
0.101
0.08
0.069
0.129
0.041
0.029
0.044
0.133
0.108
0.164
0.017
0.115
0.089
0.225
0.018
0.094
0.089
0.121
0.054
0.062
0.165
0.194
0.097
0.037
0.027
0.042